"MODL","REPL","num_iter","sub_algn_len","tree_tot_num_leaves","ref_tree_num_edges","est_tree_num_edges","tree_FP","tree_FN","tree_RF_dist","algn_FP","algn_FN","est_tree_is_binary","time"
"500L1","R16","4","200","500","497","497","0.13279678068410464","0.13279678068410464","0.13279678068410464","0.17276792346386383","0.16556718404061554","False","00:54:13"
"500L1","R16","3","20","500","497","497","0.15492957746478872","0.15492957746478872","0.15492957746478872","0.5425618002219096","0.5240077755161432","False","00:06:32"
"500L1","R16","3","100","500","497","497","0.16700201207243462","0.16700201207243462","0.16700201207243462","0.23306970291702822","0.22997105506059679","False","00:11:31"
"500L1","R16","10","200","500","497","497","0.14688128772635814","0.14688128772635814","0.14688128772635814","0.165578019793316","0.15614877652761772","False","01:38:43"
"500L1","R16","3","150","500","497","497","0.13480885311871227","0.13480885311871227","0.13480885311871227","0.16877853763048678","0.16419238583854345","False","00:25:51"
"500L1","R16","1","200","500","497","497","0.13883299798792756","0.13883299798792756","0.13883299798792756","0.17807071478405512","0.1692272818532794","False","00:13:52"
"500L1","R16","11","200","500","497","497","0.13279678068410464","0.13279678068410464","0.13279678068410464","0.1589665562103325","0.14912409515954106","False","02:05:17"
"500L1","R16","3","450","500","497","497","0.5995975855130785","0.5995975855130785","0.5995975855130785","0.9329753657510617","0.9103663214241635","False","00:08:27"
"500L1","R16","3","400","500","497","497","0.49899396378269617","0.49899396378269617","0.49899396378269617","0.8998311891641324","0.8459158456543642","False","00:33:01"
"500L1","R16","7","200","500","497","497","0.13279678068410464","0.13279678068410464","0.13279678068410464","0.1617948661462698","0.15514045026589207","False","01:17:26"
"500L1","R16","8","200","500","497","497","0.13279678068410464","0.13279678068410464","0.13279678068410464","0.1687057903839917","0.16079780068303717","False","01:18:46"
"500L1","R16","9","200","500","497","497","0.14285714285714285","0.14285714285714285","0.14285714285714285","0.16113490229173566","0.15510923122705822","False","01:38:14"
"500L1","R16","3","500","500","497","497","0.670020120724346","0.670020120724346","0.670020120724346","0.950507949546014","0.9320525627041468","False","00:06:38"
"500L1","R16","3","300","500","497","497","0.635814889336016","0.635814889336016","0.635814889336016","0.9292033472140877","0.8444101935630264","False","00:07:34"
"500L1","R16","5","200","500","497","497","0.14285714285714285","0.14285714285714285","0.14285714285714285","0.16993881930898047","0.16187594058617638","False","00:56:44"
"500L1","R16","3","50","500","497","497","0.12877263581488935","0.12877263581488935","0.12877263581488935","0.18586525172256063","0.18319281789653175","False","00:08:14"
"500L1","R16","6","200","500","497","497","0.12474849094567404","0.12474849094567404","0.12474849094567404","0.1649208477387134","0.15805056228273962","False","01:03:00"
"500L1","R16","3","350","500","497","497","0.45472837022132795","0.45472837022132795","0.45472837022132795","0.8412644973236667","0.7274353582501734","False","00:27:06"
"500L1","R16","2","200","500","497","497","0.14688128772635814","0.14688128772635814","0.14688128772635814","0.15787940685418655","0.1515801956688253","False","00:22:47"
"500L1","R16","3","200","500","497","497","0.12474849094567404","0.12474849094567404","0.12474849094567404","0.16617759894070772","0.1589980162093586","False","00:34:59"
"500L1","R16","3","600","500","497","497","0.6680080482897385","0.6680080482897385","0.6680080482897385","0.950507949546014","0.9320525627041468","False","00:05:57"
