"MODL","REPL","num_iter","sub_algn_len","tree_tot_num_leaves","ref_tree_num_edges","est_tree_num_edges","tree_FP","tree_FN","tree_RF_dist","algn_FP","algn_FN","est_tree_is_binary","time"
"1000S1","R17","3","200","1000","997","997","0.12437311935807423","0.12437311935807423","0.12437311935807423","0.1388099241574764","0.1377337181591769","False",1661.653
"1000S1","R17","5","200","1000","997","997","0.14944834503510532","0.14944834503510532","0.14944834503510532","0.1449248659880058","0.14213682605649958","False",2538.571
"1000S1","R17","3","500","1000","997","997","0.6489468405215647","0.6489468405215647","0.6489468405215647","0.9664653401681487","0.9162239929094286","False",1058.556
"1000S1","R17","3","800","1000","997","997","0.6980942828485457","0.6980942828485457","0.6980942828485457","0.9840345350084452","0.9666622926616099","False",923.578
"1000S1","R17","1","200","1000","997","997","0.13139418254764293","0.13139418254764293","0.13139418254764293","0.16330176442591826","0.16090559799955428","False",846.62
"1000S1","R17","3","900","1000","997","997","0.6659979939819458","0.6659979939819458","0.6659979939819458","0.9767176336978372","0.956817335470097","False",1246.612
"1000S1","R17","6","200","1000","997","997","0.13239719157472418","0.13239719157472418","0.13239719157472418","0.1374476241016389","0.13674321079385765","False",3277.631
"1000S1","R17","4","200","1000","997","997","0.1354062186559679","0.1354062186559679","0.1354062186559679","0.15189573456948968","0.14970648822802823","False",2033.623
"1000S1","R17","3","600","1000","997","997","0.6880641925777332","0.6880641925777332","0.6880641925777332","0.9869042575025562","0.9651270263709676","False",981.506
"1000S1","R17","2","200","1000","997","997","0.13941825476429287","0.13941825476429287","0.13941825476429287","0.1647275561531304","0.16247033858942306","False",1238.642
"1000S1","R17","3","700","1000","997","997","0.6940822467402207","0.6940822467402207","0.6940822467402207","0.9894567410555442","0.9717843506984419","False",1008.56
"1000S1","R17","3","300","1000","997","997","0.6158475426278837","0.6158475426278837","0.6158475426278837","0.9560914782348695","0.8605165736790118","False",1700.535
"1000S1","R17","3","400","1000","997","997","0.6770310932798396","0.6770310932798396","0.6770310932798396","0.9724415709847253","0.904137718515252","False",1084.553
"1000S1","R17","3","1000","1000","997","997","0.7051153460381143","0.7051153460381143","0.7051153460381143","0.9905619502676769","0.9851717272430928","False",1042.6
"1000S1","R17","7","200","1000","997","997","0.1424272818455366","0.1424272818455366","0.1424272818455366","0.13794918233794684","0.1357455129991384","False",3272.621
"1000S1","R17","3","100","1000","997","997","0.13139418254764293","0.13139418254764293","0.13139418254764293","0.15097562770508166","0.15005588084349641","False",813.557
