"MODL","REPL","num_iter","sub_algn_len","tree_tot_num_leaves","ref_tree_num_edges","est_tree_num_edges","tree_FP","tree_FN","tree_RF_dist","algn_FP","algn_FN","est_tree_is_binary","time"
"1000L1","R1","1","200","1000","997","997","0.11033099297893681","0.11033099297893681","0.11033099297893681","0.08772006637719942","0.08302882485443908","False","00:15:49"
"1000L1","R1","3","1000","1000","997","997","0.7171514543630892","0.7171514543630892","0.7171514543630892","0.991120761918322","0.9863129855962812","False","00:17:40"
"1000L1","R1","3","800","1000","997","997","0.7051153460381143","0.7051153460381143","0.7051153460381143","0.9897584279485223","0.9785486873017795","False","00:23:20"
"1000L1","R1","8","200","1000","997","997","0.14543630892678033","0.14543630892678033","0.14543630892678033","0.08676017895939814","0.08499788821957588","False","01:09:10"
"1000L1","R1","3","600","1000","997","997","0.7041123370110332","0.7041123370110332","0.7041123370110332","0.9926331250213288","0.9791239799600463","False","00:18:09"
"1000L1","R1","7","200","1000","997","997","0.14543630892678033","0.14543630892678033","0.14543630892678033","0.09544357337970566","0.09352113991444189","False","01:10:06"
"1000L1","R1","2","200","1000","997","997","0.14944834503510532","0.14944834503510532","0.14944834503510532","0.11197162601187227","0.10498776283949551","False","00:27:25"
"1000L1","R1","3","200","1000","997","997","0.11634904714142427","0.11634904714142427","0.11634904714142427","0.08439777252284797","0.08247924646804139","False","00:34:15"
"1000L1","R1","11","200","1000","997","997","0.14744232698094284","0.14744232698094284","0.14744232698094284","0.07035465028659604","0.06853741081669107","False","01:50:45"
"1000L1","R1","3","900","1000","997","997","0.6369107321965898","0.6369107321965898","0.6369107321965898","0.9705723840925954","0.9438285559707378","False","00:25:15"
"1000L1","R1","6","200","1000","997","997","0.1374122367101304","0.1374122367101304","0.1374122367101304","0.09342807933496411","0.09069014305764711","False","01:16:38"
"1000L1","R1","3","700","1000","997","997","0.7121364092276831","0.7121364092276831","0.7121364092276831","0.9938942568097211","0.984185223949932","False","00:20:25"
"1000L1","R1","3","50","1000","997","997","0.18054162487462388","0.18054162487462388","0.18054162487462388","0.12268228119229807","0.11826152449496796","False","00:18:45"
"1000L1","R1","9","200","1000","997","997","0.1213640922768305","0.1213640922768305","0.1213640922768305","0.0918667989676567","0.09035287797483949","False","01:20:01"
"1000L1","R1","3","500","1000","997","997","0.708124373119358","0.708124373119358","0.708124373119358","0.9937598999058125","0.9825501048883686","False","00:21:15"
"1000L1","R1","3","400","1000","997","997","0.691073219658977","0.691073219658977","0.691073219658977","0.9894054987372185","0.9619830850066907","False","00:20:25"
"1000L1","R1","4","200","1000","997","997","0.1334002006018054","0.1334002006018054","0.1334002006018054","0.11746271034975564","0.10902867890344914","False","00:43:42"
"1000L1","R1","5","200","1000","997","997","0.119358074222668","0.119358074222668","0.119358074222668","0.07601571077868774","0.07552848689329128","False","00:58:21"
"1000L1","R1","10","200","1000","997","997","0.1444332998996991","0.1444332998996991","0.1444332998996991","0.08889995504685244","0.08741642537183392","False","01:36:26"
"1000L1","R1","3","300","1000","997","997","0.6599799398194583","0.6599799398194583","0.6599799398194583","0.9669834435832217","0.8856712975687782","False","00:27:58"
"1000L1","R1","3","100","1000","997","997","0.15747241725175526","0.15747241725175526","0.15747241725175526","0.09333411620222876","0.09175247608225778","False","00:18:42"
