"MODL","REPL","num_iter","sub_algn_len","tree_tot_num_leaves","ref_tree_num_edges","est_tree_num_edges","tree_FP","tree_FN","tree_RF_dist","algn_FP","algn_FN","est_tree_is_binary","time"
"1000L3","R4","3","1000","1000","997","997","0.6349047141424273","0.6349047141424273","0.6349047141424273","0.9901609713599565","0.9855768389269274","False",1152.213
"1000L3","R4","3","500","1000","997","997","0.6128385155466399","0.6128385155466399","0.6128385155466399","0.9688058118688717","0.9093492050177935","False",1654.172
"1000L3","R4","2","200","1000","997","997","0.15947843530591777","0.15947843530591777","0.15947843530591777","0.2559104053291079","0.25268654635743426","False",1823.482
"1000L3","R4","3","400","1000","997","997","0.6118355065195586","0.6118355065195586","0.6118355065195586","0.9860032147308678","0.9522616564808639","False",1286.396
"1000L3","R4","7","200","1000","997","997","0.1534603811434303","0.1534603811434303","0.1534603811434303","0.27241739487540007","0.2627804062494612","False",4718.831
"1000L3","R4","5","200","1000","997","997","0.1464393179538616","0.1464393179538616","0.1464393179538616","0.2993154656979584","0.2926204101957689","False",3449.467
"1000L3","R4","1","200","1000","997","997","0.15446339017051153","0.15446339017051153","0.15446339017051153","0.21005212189244027","0.20553821796686877","False",1250.037
"1000L3","R4","3","800","1000","997","997","0.6318956870611836","0.6318956870611836","0.6318956870611836","0.9886604843912693","0.9769884634294379","False",1241.459
"1000L3","R4","3","600","1000","997","997","0.6619859578736209","0.6619859578736209","0.6619859578736209","0.9862030546569908","0.9585414784796202","False",1366.416
"1000L3","R4","4","200","1000","997","997","0.1464393179538616","0.1464393179538616","0.1464393179538616","0.22232185710949548","0.21582910423823432","False",3233.438
"1000L3","R4","3","900","1000","997","997","0.5446339017051154","0.5446339017051154","0.5446339017051154","0.9685520319165187","0.9419191669680687","False",2136.505
"1000L3","R4","3","700","1000","997","997","0.6188565697091274","0.6188565697091274","0.6188565697091274","0.9897900056990314","0.9744950666251533","False",1281.35
"1000L3","R4","3","100","1000","997","997","0.17552657973921765","0.17552657973921765","0.17552657973921765","0.30609923841834563","0.29479169618430634","False",1476.322
"1000L3","R4","6","200","1000","997","997","0.1514543630892678","0.1514543630892678","0.1514543630892678","0.26203076307462636","0.2532777081449684","False",4209.375
"1000L3","R4","3","300","1000","997","997","0.5075225677031093","0.5075225677031093","0.5075225677031093","0.9090569012948206","0.7461758905562001","False",2350.09
"1000L3","R4","3","200","1000","997","997","0.15747241725175526","0.15747241725175526","0.15747241725175526","0.2644290465523692","0.2569996163354602","False",2903.473
