"MODL","REPL","num_iter","sub_algn_len","tree_FP","tree_FN","tree_RF_dist","algn_FP","algn_FN","time"
"1000L1","R17","1","200","92","92","198824.98703000002","0.08823632356853395","0.0870565966679957","00:10:07"
"1000L1","R17","5","200","84","84","198842.1414600004","0.0973028919016743","0.09552639714679168","00:43:19"
"1000L1","R17","4","200","88","88","198843.7210799997","0.0973028919016743","0.09552639714679168","00:34:50"
"1000L1","R17","6","200","88","88","198843.4913800001","0.09731637186133524","0.09554355365622924","00:50:33"
"1000L1","R17","2","200","82","82","198837.13483999998","0.09684938100608298","0.09521335382447615","00:19:20"
"1000L1","R17","3","200","90","90","198845.4057499997","0.09730285210256095","0.0955268441883208","00:24:19"
"1000L1","R17","7","200","85","85","198843.0482700007","0.0973028919016743","0.09552639714679168","00:54:11"
