"MODL","REPL","num_iter","sub_algn_len","tree_tot_num_leaves","ref_tree_num_edges","est_tree_num_edges","tree_FP","tree_FN","tree_RF_dist","algn_FP","algn_FN","est_tree_is_binary","time"
"1000M1","R4","3","700","1000","997","997","0.7372116349047142","0.7372116349047142","0.7372116349047142","0.9948729759661507","0.9865750081011908","False",1777.515
"1000M1","R4","3","200","1000","997","997","0.33801404212637914","0.33801404212637914","0.33801404212637914","0.28707803964523493","0.27361032262401963","False",3019.497
"1000M1","R4","6","200","1000","997","997","0.21464393179538616","0.21464393179538616","0.21464393179538616","0.20536202115528146","0.19827632531253458","False",4241.509
"1000M1","R4","5","200","1000","997","997","0.3159478435305918","0.3159478435305918","0.3159478435305918","0.3130190466662299","0.3004743818458757","False",3846.574
"1000M1","R4","4","200","1000","997","997","0.2477432296890672","0.2477432296890672","0.2477432296890672","0.2218812385285085","0.2140118333918961","False",2719.545
"1000M1","R4","3","1000","1000","997","997","0.7392176529588766","0.7392176529588766","0.7392176529588766","0.992795715238972","0.9887092155351289","False",1493.431
"1000M1","R4","3","800","1000","997","997","0.757271815446339","0.757271815446339","0.757271815446339","0.9951614305847829","0.9858719863058487","False",1615.111
"1000M1","R4","2","200","1000","997","997","0.34704112337011034","0.34704112337011034","0.34704112337011034","0.3281828724503809","0.31536947817297944","False",2217.461
"1000M1","R4","3","600","1000","997","997","0.7482447342026078","0.7482447342026078","0.7482447342026078","0.9949112206886991","0.9858285739504388","False",1449.383
"1000M1","R4","7","200","1000","997","997","0.3069207622868606","0.3069207622868606","0.3069207622868606","0.3175868085083824","0.30453573342364815","False",4415.415
"1000M1","R4","3","400","1000","997","997","0.7452357071213641","0.7452357071213641","0.7452357071213641","0.9954345038212541","0.9824223504872492","False",1631.366
"1000M1","R4","1","200","1000","997","997","0.28786359077231694","0.28786359077231694","0.28786359077231694","0.23536151022589147","0.2265047179265135","False",1426.405
"1000M1","R4","3","900","1000","997","997","0.6820461384152458","0.6820461384152458","0.6820461384152458","0.9837704511384111","0.9699188911498264","False",1562.496
"1000M1","R4","3","100","1000","997","997","0.3731193580742227","0.3731193580742227","0.3731193580742227","0.36479147595981976","0.3543596548981631","False",1733.497
