"MODL","REPL","num_iter","sub_algn_len","tree_tot_num_leaves","ref_tree_num_edges","est_tree_num_edges","tree_FP","tree_FN","tree_RF_dist","algn_FP","algn_FN","est_tree_is_binary","time"
"1000L3","R3","3","400","1000","997","997","0.633901705115346","0.633901705115346","0.633901705115346","0.9577587168051686","0.8785304669603393","False",1065.427
"1000L3","R3","5","200","1000","997","997","0.10030090270812438","0.10030090270812438","0.10030090270812438","0.1079227193135337","0.10551498427985706","False",2935.504
"1000L3","R3","4","200","1000","997","997","0.10030090270812438","0.10030090270812438","0.10030090270812438","0.10178620758301993","0.10017727251131359","False",2853.51
"1000L3","R3","3","200","1000","997","997","0.11033099297893681","0.11033099297893681","0.11033099297893681","0.10823351759790178","0.10521773755933184","False",2107.534
"1000L3","R3","2","200","1000","997","997","0.11835506519558676","0.11835506519558676","0.11835506519558676","0.11482589054102321","0.10957720375504831","False",1632.206
"1000L3","R3","3","600","1000","997","997","0.6539618856569709","0.6539618856569709","0.6539618856569709","0.9714562590304479","0.9246454762415952","False",1046.38
"1000L3","R3","1","200","1000","997","997","0.10130391173520562","0.10130391173520562","0.10130391173520562","0.11506091553952369","0.1105785738430708","False",1013.524
"1000L3","R3","3","900","1000","997","997","0.6579739217652959","0.6579739217652959","0.6579739217652959","0.9727085648621158","0.9518907222231829","False",1402.438
"1000L3","R3","3","800","1000","997","997","0.5787362086258776","0.5787362086258776","0.5787362086258776","0.9435762461782728","0.8961126562445765","False",1416.41
"1000L3","R3","3","700","1000","997","997","0.6559679037111334","0.6559679037111334","0.6559679037111334","0.9733541687084363","0.9353885282084555","False",1058.418
"1000L3","R3","6","200","1000","997","997","0.09929789368104312","0.09929789368104312","0.09929789368104312","0.10012295483643396","0.09835153560209864","False",4154.538
"1000L3","R3","3","100","1000","997","997","0.11735205616850551","0.11735205616850551","0.11735205616850551","0.13264488836432897","0.13060973562294387","False",1137.49
"1000L3","R3","3","300","1000","997","997","0.5486459378134403","0.5486459378134403","0.5486459378134403","0.8158465501088095","0.7706189350813889","False",1200.3
"1000L3","R3","3","1000","1000","997","997","0.6599799398194583","0.6599799398194583","0.6599799398194583","0.9764875623383059","0.9649636893978075","False",922.401
"1000L3","R3","3","500","1000","997","997","0.5887662988966901","0.5887662988966901","0.5887662988966901","0.9387939079046654","0.8415623683487734","False",1518.385
