"MODL","REPL","num_iter","sub_algn_len","tree_tot_num_leaves","ref_tree_num_edges","est_tree_num_edges","tree_FP","tree_FN","tree_RF_dist","algn_FP","algn_FN","est_tree_is_binary","time"
"100S1","R2","3","20","100","97","97","9","9","0.09278350515463918","0.1704124252239151","0.17420593462255207","False","00:00:01"
"100S1","R2","11","20","100","97","97","9","9","0.09278350515463918","0.17049091945665462","0.17432702279704881","False","00:07:17"
"100S1","R2","1","20","100","97","97","7","7","0.07216494845360824","0.1700069405426844","0.17393003572492483","False","00:01:08"
"100S1","R2","6","20","100","97","97","8","8","0.08247422680412371","0.15739642892553785","0.1625005338125053","False","00:00:00"
"100S1","R2","4","20","100","97","97","9","9","0.09278350515463918","0.17022403906534023","0.17402605253439773","False","00:00:03"
"100S1","R2","7","20","100","97","97","9","9","0.09278350515463918","0.17025626301351748","0.17371765335088662","False","00:00:01"
"100S1","R2","5","20","100","97","97","9","9","0.09278350515463918","0.17041325147899655","0.17420896447978895","False","00:00:03"
"100S1","R2","10","20","100","97","97","8","8","0.08247422680412371","0.16032653600819646","0.1657801069125392","False","00:07:13"
"100S1","R2","8","20","100","97","97","9","9","0.09278350515463918","0.17049091945665462","0.17432702279704881","False","00:05:56"
"100S1","R2","9","20","100","97","97","9","9","0.09278350515463918","0.16999971081072152","0.17391842453411077","False","00:06:48"
"100S1","R2","2","20","100","97","97","8","8","0.08247422680412371","0.16975741150808077","0.1733084597324306","False","00:00:01"
