"MODL","REPL","num_iter","sub_algn_len","tree_FP","tree_FN","tree_RF_dist","algn_FP","algn_FN","time"
"500M1","R17","5","200","56","56","78018.05425000012","0.14170580176095848","0.1356796669827206","00:43:14"
"500M1","R17","4","200","55","55","78018.43740000008","0.1417911612384708","0.13574527005110582","00:31:37"
"500M1","R17","6","200","58","58","78019.14446000001","0.14170593929399966","0.13567961535815332","00:53:34"
"500M1","R17","2","200","59","59","78015.90231999985","0.14004050315702643","0.13467801515683842","00:19:42"
"500M1","R17","1","200","57","57","78017.13267000008","0.1432922696617458","0.13646936903478057","00:09:20"
"500M1","R17","3","200","56","56","78018.0802999999","0.14170580176095848","0.1356796669827206","00:26:18"
