"MODL","REPL","num_iter","sub_algn_len","tree_tot_num_leaves","ref_tree_num_edges","est_tree_num_edges","tree_FP","tree_FN","tree_RF_dist","algn_FP","algn_FN","est_tree_is_binary","time"
"1000L3","R8","6","200","1000","997","997","0.17953861584754263","0.17953861584754263","0.17953861584754263","0.1987488559394186","0.19068137393795148","False",4918.465
"1000L3","R8","3","900","1000","997","997","0.720160481444333","0.720160481444333","0.720160481444333","0.9941540075429287","0.9839514609630828","False",1496.446
"1000L3","R8","5","200","1000","997","997","0.15446339017051153","0.15446339017051153","0.15446339017051153","0.1832438331507853","0.17750157706358216","False",3849.47
"1000L3","R8","3","200","1000","997","997","0.17051153460381144","0.17051153460381144","0.17051153460381144","0.19184119471476602","0.18643475538243537","False",2745.451
"1000L3","R8","3","400","1000","997","997","0.7151454363089268","0.7151454363089268","0.7151454363089268","0.9928800663640744","0.9737502764368622","False",1317.335
"1000L3","R8","2","200","1000","997","997","0.16850551654964896","0.16850551654964896","0.16850551654964896","0.24284261480585723","0.23750752655408758","False",1952.485
"1000L3","R8","3","700","1000","997","997","0.7191574724172518","0.7191574724172518","0.7191574724172518","0.9901133233574568","0.9741206614117514","False",1311.192
"1000L3","R8","3","1000","1000","997","997","0.728184553660983","0.728184553660983","0.728184553660983","0.9916717734924916","0.9871622667843479","False",1217.504
"1000L3","R8","3","800","1000","997","997","0.7141424272818455","0.7141424272818455","0.7141424272818455","0.990094670472708","0.9791281782504349","False",1268.791
"1000L3","R8","3","500","1000","997","997","0.6940822467402207","0.6940822467402207","0.6940822467402207","0.992161393556616","0.978137271325694","False",1738.418
"1000L3","R8","1","200","1000","997","997","0.1584754262788365","0.1584754262788365","0.1584754262788365","0.18243890184946687","0.17443292483297024","False",1341.25
"1000L3","R8","3","300","1000","997","997","0.6288866599799399","0.6288866599799399","0.6288866599799399","0.9601894935342461","0.8491354934432855","False",2466.23
"1000L3","R8","4","200","1000","997","997","0.14744232698094284","0.14744232698094284","0.14744232698094284","0.22358392899493296","0.21392096421624507","False",3534.462
"1000L3","R8","3","600","1000","997","997","0.7231695085255767","0.7231695085255767","0.7231695085255767","0.9941423848021074","0.9841305137294067","False",1304.306
