"MODL","REPL","num_iter","sub_algn_len","tree_tot_num_leaves","ref_tree_num_edges","est_tree_num_edges","tree_FP","tree_FN","tree_RF_dist","algn_FP","algn_FN","est_tree_is_binary","time"
"500L1","R11","3","350","500","497","497","0.5533199195171026","0.5533199195171026","0.5533199195171026","0.8743255352788231","0.7516445123582217","False","00:06:58"
"500L1","R11","3","50","500","497","497","0.13883299798792756","0.13883299798792756","0.13883299798792756","0.21283894712698936","0.2111473188030274","False","00:07:04"
"500L1","R11","4","200","500","497","497","0.11670020120724346","0.11670020120724346","0.11670020120724346","0.17460054999723462","0.16836135050310275","False","00:39:33"
"500L1","R11","3","400","500","497","497","0.4607645875251509","0.4607645875251509","0.4607645875251509","0.6937080470927988","0.646824420581009","False","00:27:44"
"500L1","R11","10","200","500","497","497","0.11871227364185111","0.11871227364185111","0.11871227364185111","0.17853124541873588","0.1761166599952162","False","01:39:05"
"500L1","R11","3","500","500","497","497","0.5975855130784709","0.5975855130784709","0.5975855130784709","0.8454468322991467","0.8027855857701246","False","00:06:20"
"500L1","R11","3","600","500","497","497","0.5895372233400402","0.5895372233400402","0.5895372233400402","0.8415340493435706","0.7968461223247589","False","00:06:04"
"500L1","R11","9","200","500","497","497","0.14084507042253522","0.14084507042253522","0.14084507042253522","0.19164949820541244","0.18864091896856072","False","01:13:39"
"500L1","R11","8","200","500","497","497","0.12072434607645875","0.12072434607645875","0.12072434607645875","0.18117692066113988","0.17695524986889055","False","01:01:34"
"500L1","R11","11","200","500","497","497","0.12474849094567404","0.12474849094567404","0.12474849094567404","0.1706578914636594","0.16571679777966053","False","01:44:45"
"500L1","R11","7","200","500","497","497","0.11670020120724346","0.11670020120724346","0.11670020120724346","0.1810193875675572","0.17734016961411592","False","01:12:47"
"500L1","R11","3","300","500","497","497","0.5633802816901409","0.5633802816901409","0.5633802816901409","0.7768266066052962","0.7306681284923904","False","00:06:24"
"500L1","R11","3","150","500","497","497","0.13078470824949698","0.13078470824949698","0.13078470824949698","0.16371321634869562","0.16273720983714957","False","00:19:05"
"500L1","R11","3","20","500","497","497","0.16498993963782696","0.16498993963782696","0.16498993963782696","0.35779860865625346","0.3500622593372914","False","00:06:31"
"500L1","R11","3","450","500","497","497","0.5714285714285714","0.5714285714285714","0.5714285714285714","0.803369652837089","0.7554554757496048","False","00:07:29"
"500L1","R11","3","100","500","497","497","0.1227364185110664","0.1227364185110664","0.1227364185110664","0.166057535484595","0.1641527497718509","False","00:11:45"
"500L1","R11","3","200","500","497","497","0.11871227364185111","0.11871227364185111","0.11871227364185111","0.17938139922845175","0.17717775689436954","False","00:29:23"
"500L1","R11","6","200","500","497","497","0.12072434607645875","0.12072434607645875","0.12072434607645875","0.18332185996283712","0.17766290548868868","False","01:02:44"
"500L1","R11","5","200","500","497","497","0.11468812877263582","0.11468812877263582","0.11468812877263582","0.17634714020839803","0.168986389440819","False","00:43:59"
"500L1","R11","2","200","500","497","497","0.13078470824949698","0.13078470824949698","0.13078470824949698","0.16288029070845378","0.15887393857882537","False","00:21:34"
"500L1","R11","1","200","500","497","497","0.12877263581488935","0.12877263581488935","0.12877263581488935","0.15375915840231114","0.14961966746615096","False","00:13:49"
