"MODL","REPL","num_iter","sub_algn_len","tree_tot_num_leaves","ref_tree_num_edges","est_tree_num_edges","tree_FP","tree_FN","tree_RF_dist","algn_FP","algn_FN","est_tree_is_binary","time"
"1000L1","R2","3","100","1000","997","997","0.14744232698094284","0.14744232698094284","0.14744232698094284","0.06771011642883507","0.0660060067175755","False","00:16:36"
"1000L1","R2","4","200","1000","997","997","0.12938816449348045","0.12938816449348045","0.12938816449348045","0.0638407872517135","0.06255281607993568","False","00:40:57"
"1000L1","R2","8","200","1000","997","997","0.1123370110330993","0.1123370110330993","0.1123370110330993","0.048801013069692756","0.047851629221311365","False","01:10:51"
"1000L1","R2","3","300","1000","997","997","0.6960882647943831","0.6960882647943831","0.6960882647943831","0.9811298630830937","0.9167041377303996","False","00:32:08"
"1000L1","R2","2","200","1000","997","997","0.11534603811434303","0.11534603811434303","0.11534603811434303","0.0540136407958105","0.05308383668299399","False","00:22:27"
"1000L1","R2","3","200","1000","997","997","0.1354062186559679","0.1354062186559679","0.1354062186559679","0.06398867868898961","0.06274965736532256","False","00:31:48"
"1000L1","R2","11","200","1000","997","997","0.11534603811434303","0.11534603811434303","0.11534603811434303","0.052865856882552076","0.05205159402671311","False","01:32:10"
"1000L1","R2","7","200","1000","997","997","0.12938816449348045","0.12938816449348045","0.12938816449348045","0.05785601219577785","0.05662449203199604","False","01:02:36"
"1000L1","R2","3","400","1000","997","997","0.708124373119358","0.708124373119358","0.708124373119358","0.9870620653553944","0.950150690906875","False","00:21:13"
"1000L1","R2","3","800","1000","997","997","0.7231695085255767","0.7231695085255767","0.7231695085255767","0.9885361465565827","0.9708630034718486","False","00:20:13"
"1000L1","R2","3","600","1000","997","997","0.7311935807422267","0.7311935807422267","0.7311935807422267","0.9912763099680806","0.9764544363324572","False","00:20:34"
"1000L1","R2","3","700","1000","997","997","0.7412236710130391","0.7412236710130391","0.7412236710130391","0.9905571890335152","0.9731755256970196","False","00:20:28"
"1000L1","R2","3","900","1000","997","997","0.6700100300902708","0.6700100300902708","0.6700100300902708","0.9806997308844707","0.9638062288154805","False","00:20:57"
"1000L1","R2","10","200","1000","997","997","0.14142427281845538","0.14142427281845538","0.14142427281845538","0.05366947000586608","0.052723561693625354","False","01:29:05"
"1000L1","R2","6","200","1000","997","997","0.09729187562688064","0.09729187562688064","0.09729187562688064","0.05109149683325598","0.05039378656914817","False","01:00:12"
"1000L1","R2","3","500","1000","997","997","0.7271815446339017","0.7271815446339017","0.7271815446339017","0.9904442798833377","0.9703605981494058","False","00:18:48"
"1000L1","R2","5","200","1000","997","997","0.13039117352056168","0.13039117352056168","0.13039117352056168","0.052762315012992445","0.05137985700639469","False","00:47:23"
"1000L1","R2","3","1000","1000","997","997","0.7231695085255767","0.7231695085255767","0.7231695085255767","0.989766987559888","0.9840404991388731","False","00:18:27"
"1000L1","R2","3","50","1000","997","997","0.119358074222668","0.119358074222668","0.119358074222668","0.09770552385206199","0.09555592974450511","False","00:17:33"
"1000L1","R2","1","200","1000","997","997","0.1283851554663992","0.1283851554663992","0.1283851554663992","0.05526588383751918","0.054156736692154595","False","00:14:28"
"1000L1","R2","9","200","1000","997","997","0.12738214643931794","0.12738214643931794","0.12738214643931794","0.052079894469705845","0.05090175389737206","False","01:35:52"
