"MODL","REPL","num_iter","sub_algn_len","tree_tot_num_leaves","ref_tree_num_edges","est_tree_num_edges","tree_FP","tree_FN","tree_RF_dist","algn_FP","algn_FN","est_tree_is_binary"
"500L1","R0",7,200,500,497,497,0.09859154929577464,0.09859154929577464,0.09859154929577464,0.10293859791449045,0.09831322036923063,False
"500L1","R0",3,450,500,497,497,0.4044265593561368,0.4044265593561368,0.4044265593561368,0.6838162830009625,0.6316891979140651,False
"500L1","R0",3,500,500,497,497,0.6177062374245473,0.6177062374245473,0.6177062374245473,0.9481237921443074,0.9291915735291558,False
"500L1","R0",6,200,500,497,497,0.08853118712273642,0.08853118712273642,0.08853118712273642,0.13548656449700536,0.1314970467855836,False
"500L1","R0",2,200,500,497,497,0.08853118712273642,0.08853118712273642,0.08853118712273642,0.1415905853445959,0.1375183344592137,False
"500L1","R0",11,200,500,497,497,0.08651911468812877,0.08651911468812877,0.08651911468812877,0.11320064971457988,0.10891483899911936,False
"500L1","R0",3,600,500,497,497,0.613682092555332,0.613682092555332,0.613682092555332,0.9481237921443074,0.9291915735291558,False
"500L1","R0",8,200,500,497,497,0.08450704225352113,0.08450704225352113,0.08450704225352113,0.11033951225664462,0.10393251867208941,False
"500L1","R0",3,200,500,497,497,0.10462776659959759,0.10462776659959759,0.10462776659959759,0.1295782466459311,0.12692233795655927,False
"500L1","R0",3,150,500,497,497,0.11670020120724346,0.11670020120724346,0.11670020120724346,0.1339811363455352,0.12739456060325327,False
"500L1","R0",3,100,500,497,497,0.08450704225352113,0.08450704225352113,0.08450704225352113,0.1128016899893931,0.11033002345283449,False
"500L1","R0",3,400,500,497,497,0.5533199195171026,0.5533199195171026,0.5533199195171026,0.7968825876523257,0.7510485122488202,False
"500L1","R0",3,20,500,497,497,0.09859154929577464,0.09859154929577464,0.09859154929577464,0.36241479323550696,0.34834966794542954,False
"500L1","R0",9,200,500,497,497,0.09456740442655935,0.09456740442655935,0.09456740442655935,0.13448554972249438,0.12973535098562428,False
"500L1","R0",3,350,500,497,497,0.49295774647887325,0.49295774647887325,0.49295774647887325,0.8620193561642574,0.7698661549893092,False
"500L1","R0",3,50,500,497,497,0.09054325955734406,0.09054325955734406,0.09054325955734406,0.13061493182228134,0.1267236548346139,False
"500L1","R0",4,200,500,497,497,0.0925553319919517,0.0925553319919517,0.0925553319919517,0.13085059858122028,0.12787700260017498,False
"500L1","R0",10,200,500,497,497,0.10261569416498995,0.10261569416498995,0.10261569416498995,0.13208294640295348,0.12879007755360183,False
"500L1","R0",1,200,500,497,497,0.1006036217303823,0.1006036217303823,0.1006036217303823,0.13429243726873608,0.13073148272183033,False
"500L1","R0",5,200,500,497,497,0.08853118712273642,0.08853118712273642,0.08853118712273642,0.1098541607550575,0.10506772167977574,False
"500L1","R0",3,300,500,497,497,0.4225352112676056,0.4225352112676056,0.4225352112676056,0.7036254290808375,0.6539161567416385,False
