"MODL","REPL","num_iter","sub_algn_len","tree_tot_num_leaves","ref_tree_num_edges","est_tree_num_edges","tree_FP","tree_FN","tree_RF_dist","algn_FP","algn_FN","est_tree_is_binary"
"500L1","R4",3,350,500,497,497,0.6800804828973843,0.6800804828973843,0.6800804828973843,0.9761147746406318,0.9365340994199586,False
"500L1","R4",7,200,500,497,497,0.16297786720321933,0.16297786720321933,0.16297786720321933,0.2748667090649336,0.26264538582038965,False
"500L1","R4",3,100,500,497,497,0.16901408450704225,0.16901408450704225,0.16901408450704225,0.33056428864651566,0.32173940627366515,False
"500L1","R4",11,200,500,497,497,0.15090543259557343,0.15090543259557343,0.15090543259557343,0.2498443025823881,0.23696794599788584,False
"500L1","R4",3,200,500,497,497,0.14084507042253522,0.14084507042253522,0.14084507042253522,0.21522227627510848,0.20054829082482117,False
"500L1","R4",5,200,500,497,497,0.1267605633802817,0.1267605633802817,0.1267605633802817,0.23298154055692788,0.2160074583435525,False
"500L1","R4",3,500,500,497,497,0.6861167002012073,0.6861167002012073,0.6861167002012073,0.9851821377553868,0.9787064409726085,False
"500L1","R4",1,200,500,497,497,0.16297786720321933,0.16297786720321933,0.16297786720321933,0.22495349647622787,0.21113059215501628,False
"500L1","R4",3,300,500,497,497,0.6780684104627767,0.6780684104627767,0.6780684104627767,0.9789396070890571,0.9485430060705969,False
"500L1","R4",3,50,500,497,497,0.19114688128772636,0.19114688128772636,0.19114688128772636,0.3428579098993366,0.33956385063098504,False
"500L1","R4",3,150,500,497,497,0.20321931589537223,0.20321931589537223,0.20321931589537223,0.29973423202757954,0.28983305938766624,False
"500L1","R4",2,200,500,497,497,0.15694164989939638,0.15694164989939638,0.15694164989939638,0.24172631673060285,0.22983331839033472,False
"500L1","R4",9,200,500,497,497,0.1529175050301811,0.1529175050301811,0.1529175050301811,0.257540972866108,0.24320592085135995,False
"500L1","R4",3,450,500,497,497,0.6438631790744467,0.6438631790744467,0.6438631790744467,0.9745352137906829,0.9651011322094025,False
"500L1","R4",10,200,500,497,497,0.1851106639839034,0.1851106639839034,0.1851106639839034,0.2375689110186282,0.22583055955578446,False
"500L1","R4",3,600,500,497,497,0.682092555331992,0.682092555331992,0.682092555331992,0.9864447239141532,0.9805460733677206,False
"500L1","R4",6,200,500,497,497,0.14688128772635814,0.14688128772635814,0.14688128772635814,0.2556414003932138,0.23941642846224576,False
"500L1","R4",3,400,500,497,497,0.613682092555332,0.613682092555332,0.613682092555332,0.9523473255442647,0.9161951240966241,False
"500L1","R4",4,200,500,497,497,0.158953722334004,0.158953722334004,0.158953722334004,0.2759307446742948,0.261576406333344,False
"500L1","R4",3,20,500,497,497,0.23138832997987926,0.23138832997987926,0.23138832997987926,0.38886491557451175,0.38244664098754666,False
"500L1","R4",8,200,500,497,497,0.13682092555331993,0.13682092555331993,0.13682092555331993,0.2368747008116059,0.2233667355939548,False
